{
  "project_info": {
    "project_number": "533004015475",
    "firebase_url": "https://logposeapp-prod.firebaseio.com",
    "project_id": "logposeapp-prod",
    "storage_bucket": "logposeapp-prod.appspot.com"
  },
  "client": [
    {
      "client_info": {
        "mobilesdk_app_id": "1:533004015475:android:9aadb51d82158f0beb1706",
        "android_client_info": {
          "package_name": "com.ycai.logposeapp"
        }
      },
      "oauth_client": [
        {
          "client_id": "533004015475-h79hf9rga41087a0d0trjmdlssvj6dog.apps.googleusercontent.com",
          "client_type": 3
        }
      ],
      "api_key": [
        {
          "current_key": "AIzaSyCbD7OV5YGgbtCYwXCrV8LrZNynJ1-WHmk"
        }
      ],
      "services": {
        "appinvite_service": {
          "other_platform_oauth_client": [
            {
              "client_id": "533004015475-h79hf9rga41087a0d0trjmdlssvj6dog.apps.googleusercontent.com",
              "client_type": 3
            }
          ]
        }
      }
    }
  ],
  "configuration_version": "1"
}